[{"userId":30,"IBAN":"AT75 7635 2882 8223 1094","balance":1062,"Currency":"YER"},
{"userId":26,"IBAN":"FR07 8864 1702 18AP U8VW I9SY 285","balance":7863,"Currency":"CNY"},
{"userId":14,"IBAN":"FR85 2589 2664 38XL NR7E JHEG X27","balance":6390,"Currency":"IDR"},
{"userId":11,"IBAN":"MK52 086G SZLW AAR1 P27","balance":652,"Currency":"KES"},
{"userId":9,"IBAN":"AT38 9786 8352 7725 2314","balance":5752,"Currency":"AMD"},
{"userId":8,"IBAN":"PL14 7075 6556 7814 2677 1022 1565","balance":1669,"Currency":"HTG"},
{"userId":27,"IBAN":"DO88 EVN7 1842 4703 6490 3597 5574","balance":1179,"Currency":"EUR"},
{"userId":19,"IBAN":"IL65 8495 6730 3561 6499 429","balance":7625,"Currency":"CNY"},
{"userId":7,"IBAN":"EE15 8617 9571 1954 3773","balance":1375,"Currency":"USD"},
{"userId":6,"IBAN":"MK67 620G VHQN E5CZ W19","balance":7741,"Currency":"IDR"},
{"userId":27,"IBAN":"MT66 DTOU 9997 8DXN 6LM0 T1HL T7MU QL4","balance":3787,"Currency":"IDR"},
{"userId":28,"IBAN":"FR35 4480 5743 03KL ONGX 6UEK 503","balance":6657,"Currency":"HNL"},
{"userId":12,"IBAN":"NO23 6911 6448 981","balance":5114,"Currency":"CAD"},
{"userId":28,"IBAN":"BH43 TXIO KATW 6KKQ PAEU 0D","balance":1662,"Currency":"MAD"},
{"userId":2,"IBAN":"FR50 5878 2212 96XE GMSL JWHG D00","balance":5343,"Currency":"HNL"},
{"userId":1,"IBAN":"AT14 6360 0134 0868 0869","balance":8162,"Currency":"LAK"},
{"userId":3,"IBAN":"KW57 JBAL 4VY9 OPCN LI8E ZDQR FKL1 WM","balance":8774,"Currency":"PHP"},
{"userId":11,"IBAN":"AL23 0673 8873 VU87 SBJV CTS6 DNFA","balance":2643,"Currency":"IDR"},
{"userId":29,"IBAN":"GR13 1350 587L SZO4 ZWFT O5M8 CAJ","balance":288,"Currency":"CNY"},
{"userId":16,"IBAN":"TR81 7791 3BWO WQVR 6VOZ DCZX QU","balance":2863,"Currency":"MXN"},
{"userId":8,"IBAN":"LI68 2330 60JA XHRL YA8T R","balance":9338,"Currency":"SEK"},
{"userId":17,"IBAN":"DK82 7397 0658 1173 06","balance":2173,"Currency":"CNY"},
{"userId":22,"IBAN":"SK13 8437 1933 0821 8705 8391","balance":4313,"Currency":"THB"},
{"userId":13,"IBAN":"IT62 U755 6147 289M TRKB OMOF HNX","balance":5411,"Currency":"PAB"},
{"userId":7,"IBAN":"FR75 5106 0451 28FH YT4A EKLX O07","balance":2326,"Currency":"ZWL"},
{"userId":8,"IBAN":"GR78 8253 936A N8YK FWCG FLXM VM4","balance":1470,"Currency":"CNY"},
{"userId":16,"IBAN":"TN53 5399 1387 5809 0303 7501","balance":5276,"Currency":"RUB"},
{"userId":19,"IBAN":"BH35 YOIE 1ZAH IIVT EG1T AC","balance":7889,"Currency":"SYP"},
{"userId":11,"IBAN":"FR16 6641 9345 889K MTFF VKBT C22","balance":3638,"Currency":"HRK"},
{"userId":20,"IBAN":"VG30 SEDF 3878 2513 4620 8881","balance":921,"Currency":"AFN"},
{"userId":8,"IBAN":"LI57 4235 4H3P A2SD WCC7 T","balance":563,"Currency":"SEK"},
{"userId":12,"IBAN":"RS92 3724 0487 4787 8575 96","balance":8767,"Currency":"NGN"},
{"userId":11,"IBAN":"FR96 5304 0506 66WT BPVP YKCN H84","balance":6508,"Currency":"IDR"},
{"userId":14,"IBAN":"MC12 6790 1784 43SJ NG3M FBAM M16","balance":1298,"Currency":"EUR"},
{"userId":19,"IBAN":"AT45 0702 0498 9465 6313","balance":9792,"Currency":"MKD"},
{"userId":12,"IBAN":"MK06 1302 HPFT 0NLE A27","balance":2761,"Currency":"CHF"},
{"userId":3,"IBAN":"MC15 6194 1092 301O QNQN WNDW C31","balance":8736,"Currency":"CNY"},
{"userId":6,"IBAN":"IE54 KVSY 8269 7299 9837 29","balance":2812,"Currency":"RUB"},
{"userId":14,"IBAN":"BG67 PYPE 7146 314B 3R4O IR","balance":3606,"Currency":"EUR"},
{"userId":19,"IBAN":"LB93 3723 YMC5 1STS KABZ ZEU3 Y0LO","balance":588,"Currency":"CNY"},
{"userId":9,"IBAN":"PS92 MEBM Y66L GWCE 5GVG LRD3 5DCY Y","balance":4292,"Currency":"JPY"},
{"userId":17,"IBAN":"DE89 3307 6707 5936 2576 21","balance":7568,"Currency":"BRL"},
{"userId":18,"IBAN":"AE47 7417 7178 4725 6575 051","balance":831,"Currency":"EUR"},
{"userId":30,"IBAN":"PS13 QFNF RFPA TOWN Z5LL 3ITO QU1H E","balance":4332,"Currency":"CNY"},
{"userId":17,"IBAN":"DO57 2EG0 9775 1109 3819 0322 4079","balance":7334,"Currency":"MAD"},
{"userId":2,"IBAN":"VG66 ZCMD 4064 1252 2646 2704","balance":3883,"Currency":"ZMW"},
{"userId":21,"IBAN":"GT08 EBLM MGBF MP7P KVF7 7JHK 3BIZ","balance":5472,"Currency":"CNY"},
{"userId":29,"IBAN":"FR63 7658 5870 28BL YK4N CA0W B94","balance":5409,"Currency":"CNY"},
{"userId":15,"IBAN":"FR59 9276 7785 58DW 06OL IMWK J64","balance":6015,"Currency":"IDR"},
{"userId":11,"IBAN":"BA92 4203 6481 9970 7630","balance":9524,"Currency":"PEN"},
{"userId":27,"IBAN":"MK65 758S MKNK QUDX I53","balance":3485,"Currency":"IDR"},
{"userId":24,"IBAN":"NL61 ZPVH 9919 5619 41","balance":9723,"Currency":"ARS"},
{"userId":29,"IBAN":"MC81 5390 9030 88YV S7JB JUVK U15","balance":4936,"Currency":"BRL"},
{"userId":23,"IBAN":"FR53 4953 4274 83B9 ZNEV OOZF K50","balance":2299,"Currency":"CNY"},
{"userId":16,"IBAN":"AZ14 GLPT 9SDJ IBIS RCLQ BXC9 AEEH","balance":2578,"Currency":"PHP"},
{"userId":22,"IBAN":"AE91 2132 1523 4025 2837 989","balance":3355,"Currency":"NPR"},
{"userId":27,"IBAN":"FO68 4124 4774 6980 17","balance":535,"Currency":"EGP"},
{"userId":26,"IBAN":"GL89 5879 2298 2964 13","balance":8032,"Currency":"CNY"},
{"userId":8,"IBAN":"LT98 3085 5506 2804 2776","balance":832,"Currency":"CZK"},
{"userId":0,"IBAN":"CZ21 1477 7322 2146 8726 1244","balance":4764,"Currency":"SEK"}]